/home/pc/quarkus/new/first-app/src/main/java/org/acme/first/app/GreetingService.java
/home/pc/quarkus/new/first-app/src/main/java/org/acme/first/app/GreetingServiceone.java
/home/pc/quarkus/new/first-app/src/main/java/org/acme/first/app/GreetingResource.java
/home/pc/quarkus/new/first-app/src/main/java/org/acme/first/app/Fruit.java
